Place,Name,Sex,BirthDate,Country,Equipment,Division,BodyweightKg,WeightClassKg,Squat1Kg,Squat2Kg,Squat3Kg,Best3SquatKg,Bench1Kg,Bench2Kg,Bench3Kg,Best3BenchKg,Deadlift1Kg,Deadlift2Kg,Deadlift3Kg,Best3DeadliftKg,TotalKg,Event,Team
1,James Keatley,M,1997-02-20,Ireland,Raw,M-JR,58.6,59,70,80,100,100,85,92.5,-100,92.5,162.5,170.5,176,176,368.5,SBD,ABS
1,Philip O'Kelly,M,1997-11-17,Ireland,Raw,M-JR,65.8,66,127.5,135,140,140,97.5,105,-110,105,167.5,175,180,180,425,SBD,ABS
2,Cahir Mc Grory,M,1998-05-03,Ireland,Raw,M-JR,64.6,66,137.5,142.5,-147.5,142.5,85,92.5,-95,92.5,170,180,-185,180,415,SBD,
1,Sean Blong,M,1998-11-17,Ireland,Raw,M-JR,74,74,200,212.5,-222.5,212.5,125,130,132.5,132.5,210,222.5,-230,222.5,567.5,SBD,ABS
2,Joachim Bosschaert,M,1997-12-25,Ireland,Raw,M-JR,73,74,180,187.5,192.5,192.5,120,125,-130,125,190,202.5,210,210,527.5,SBD,ODS
3,Kieron Ring,M,1998-03-09,Ireland,Raw,M-JR,67.8,74,162.5,170,-172.5,170,110,115,120,120,200,210,220,220,510,SBD,KTS
4,Adrian Tey,M,1996-12-06,Ireland,Raw,M-JR,71.8,74,160,167.5,-172.5,167.5,110,115,117.5,117.5,185,195,205,205,490,SBD,TCD
1,Conor Devilly,M,1996-06-21,Ireland,Raw,M-JR,78.6,83,195,202.5,210,210,147.5,155,160,160,210,217.5,227.5,227.5,597.5,SBD,SHE
2,Adam Loughnane,M,1997-08-17,Ireland,Raw,M-JR,82.6,83,190,200,205,205,120,127.5,132.5,132.5,235,247.5,255,255,592.5,SBD,CCP
3,Mark Swayne,M,1998-04-03,Ireland,Raw,M-JR,81.6,83,190,200,205,205,130,135,140,140,210,220,225,225,570,SBD,UCC
4,Jack Kelly,M,1997-04-09,Ireland,Raw,M-JR,82.4,83,187.5,195,200,200,137.5,142.5,145,145,-225,-225,225,225,570,SBD,CGL
5,Elijah Faleti,M,1998-01-12,Ireland,Raw,M-JR,81,83,-180,180,-197.5,180,90,95,-100,95,235,245,252.5,252.5,527.5,SBD,ABS
6,Cillian Duffy,M,1997-07-31,Ireland,Raw,M-JR,76.6,83,145,152.5,160,160,120,125,-127.5,125,180,190,195,195,480,SBD,ABS
7,Lucas Loo,M,1996-03-24,Ireland,Raw,M-JR,78.6,83,160,167.5,172.5,172.5,85,-90,-90,85,-180,180,195,195,452.5,SBD,TCD
1,Dami Fashoranti,M,1998-02-19,Ireland,Raw,M-JR,91.6,93,230,242.5,247.5,247.5,150,155,-157.5,155,285,300.5,310.5,310.5,713,SBD,UCC
2,Patrick O'Sullivan,M,1996-08-14,Ireland,Raw,M-JR,92.2,93,207.5,217.5,225,225,140,150,-155,150,-252.5,262.5,280,280,655,SBD,
3,Jordan Konczak,M,1998-12-23,Ireland,Raw,M-JR,92.8,93,212.5,225,232.5,232.5,147.5,155,157.5,157.5,222.5,237.5,247.5,247.5,637.5,SBD,ODS
4,Adam Carroll,M,1996-12-17,Ireland,Raw,M-JR,91.6,93,-185,185,195,195,127.5,135,-140,135,205,212.5,-220,212.5,542.5,SBD,KAO
5,Dylan McMahon,M,1996-03-25,Ireland,Raw,M-JR,91.6,93,180,190,195,195,115,122.5,125,125,190,205,215,215,535,SBD,CGL
6,Stephen Byrne,M,1998-11-18,Ireland,Raw,M-JR,84.6,93,160,170,180,180,110,115,117.5,117.5,200,215,225,225,522.5,SBD,ABS
1,Darragh Cusse,M,1996-07-25,Ireland,Raw,M-JR,101,105,215,225,235,235,130,135,140,140,222.5,235,245,245,620,SBD,KTS
2,Kilian Kirsch,M,1997-07-04,Ireland,Raw,M-JR,100.4,105,185,195,200,200,110,115,-117.5,115,230,250,255,255,570,SBD,ABS
3,Arthur Odlum,M,1998-08-24,Ireland,Raw,M-JR,94,105,175,185,190,190,120,125,-127.5,125,235,-245,245,245,560,SBD,ABS
1,Matthew Coppinger,M,1996-01-09,Ireland,Raw,M-JR,117,120,190,-195,195,195,130,135,-140,135,210,220,227.5,227.5,557.5,SBD,KAO
2,Patrick Garvey,M,1997-09-18,Ireland,Raw,M-JR,107.6,120,180,187.5,192.5,192.5,105,112.5,-117.5,112.5,210,225,-232.5,225,530,SBD,CGL
1,Brendan O'Rourke,M,1976-06-01,Ireland,Raw,M-M1,91,93,190,200,205,205,140,145,148,148,230,240,-247.5,240,593,SBD,SEP
2,James Hogan,M,1976-09-19,Ireland,Raw,M-M1,91.8,93,190,200,205,205,-100,110,120,120,220,225,230,230,555,SBD,STU
3,Finbarr O'Riordan,M,1975-05-23,Ireland,Raw,M-M1,92.2,93,160,-170,175,175,110,117.5,-120,117.5,210,220,230,230,522.5,SBD,CGL
1,Pauli Daniele,M,1978-10-20,Ireland,Raw,M-M1,104.6,105,245,257.5,261,261,180,190,194,194,277.5,290,300,300,755,SBD,ABS
2,Dave Worrall,M,1972-01-18,Ireland,Raw,M-M1,103.6,105,200,215,,215,150,157.5,160,160,230,240,250,250,625,SBD,ABS
3,Dave Looney,M,1977-06-09,Ireland,Raw,M-M1,103.4,105,195,205,-207.5,205,105,-110,112.5,112.5,220,230,-240,230,547.5,SBD,LAO
4,Martin O Mahony,M,1979-11-16,Ireland,Raw,M-M1,97.2,105,165,175,180,180,105,112.5,115,115,225,235,240,240,535,SBD,CGL
1,Patrick Dillane,M,1977-11-11,Ireland,Raw,M-M1,118.2,120,165,175,-182.5,175,115,120,122.5,122.5,185,192.5,200,200,497.5,SBD,KAO
1,James Fitzgerald,M,1967-11-04,Ireland,Raw,M-M2,72.6,74,125,135,142.5,142.5,95,100,105,105,150,162.5,170,170,417.5,SBD,HER
1,John O'Dwyer,M,1960-08-11,Ireland,Raw,M-M3,124.6,120+,140,-142.5,-142.5,140,150,155,,155,160,185,,185,480,SBD,PHO
1,Alex Cremins,M,1999-12-14,Ireland,Raw,M-U21,64.3,66,175,182.5,185,185,112.5,117.5,-120,117.5,222.5,235,238,238,540.5,SBD,CGL
2,Moataz Abujennah,M,2000-07-26,Ireland,Raw,M-U21,65.2,66,160,170,180,180,100,105,-110,105,175,187.5,-195,187.5,472.5,SBD,
3,Gary O'Halloran,M,2003-04-12,Ireland,Raw,M-U21,64,66,122.5,132.5,137.5,137.5,85,92.5,97.5,97.5,165,-175,175,175,410,SBD,CGL
1,Craig McDermott,M,1999-05-29,Ireland,Raw,M-U21,73,74,175,185,190,190,105,107.5,112.5,112.5,-185,190,-207.5,190,492.5,SBD,CGL
2,Fin O'Donovan,M,2001-12-06,Ireland,Raw,M-U21,72.8,74,157.5,165,170,170,-87.5,90,95,95,187.5,195,205,205,470,SBD,
3,Ian Lillis,M,2002-08-17,Ireland,Raw,M-U21,72.9,74,-150,150,157.5,157.5,102.5,107.5,-112.5,107.5,185,197.5,202.5,202.5,467.5,SBD,ODS
4,Conor Donohoe,M,2003-04-26,Ireland,Raw,M-U21,71.8,74,140,147.5,152.5,152.5,95,100,102.5,102.5,175,187.5,197.5,197.5,452.5,SBD,CGL
5,Shane McGarry,M,2003-02-17,Ireland,Raw,M-U21,72.2,74,115,120,-122.5,120,85,87.5,90,90,160,172.5,180,180,390,SBD,ABS
1,Tom Lynch,M,1999-02-24,Ireland,Raw,M-U21,82.2,83,185,190,200,200,112.5,-117.5,120,120,-205,217.5,225,225,545,SBD,DCU
2,Kyran O'Regan,M,2002-05-24,Ireland,Raw,M-U21,80.1,83,150,160,165,165,112.5,117.5,-120,117.5,185,192.5,,192.5,475,SBD,KAO
3,Adam Maguire,M,1999-07-11,Ireland,Raw,M-U21,81.9,83,135,142.5,150,150,102.5,107.5,112.5,112.5,190,202.5,212.5,212.5,475,SBD,KTS
4,Adam O'Connor,M,2001-02-13,Ireland,Raw,M-U21,79.2,83,165,-172.5,-172.5,165,85,90,92.5,92.5,180,187.5,195,195,452.5,SBD,CGL
5,David Bourke,M,2003-08-14,Ireland,Raw,M-U21,76.4,83,125,132.5,135,135,-85,87.5,92.5,92.5,180,195,200,200,427.5,SBD,CGL
1,Liam McManus,M,2000-03-29,Ireland,Raw,M-U21,91.2,93,222.5,235,245,245,117.5,125,127.5,127.5,255,270,277.5,277.5,650,SBD,ODS
2,Melvin Conteh,M,1999-12-13,Ireland,Raw,M-U21,87.5,93,-205,210,217.5,217.5,170,175,178.5,178.5,-240,240,-265,240,636,SBD,KTS
3,Sam Loscher,M,2002-12-13,Ireland,Raw,M-U21,85.9,93,182.5,192.5,200,200,127.5,133,136,136,190,200,207.5,207.5,543.5,SBD,
4,Max Sherry,M,2004-02-12,Ireland,Raw,M-U21,84.6,93,-110,110,117.5,117.5,85,90,95,95,135,145,160,160,372.5,SBD,CGL
1,Ryan Rooney,M,1999-07-04,Ireland,Raw,M-U21,101.5,105,-192.5,-192.5,192.5,192.5,110,115,120,120,240,255,272.5,272.5,585,SBD,CGL
2,Dylan O'Brien,M,2002-10-17,Ireland,Raw,M-U21,103,105,195,207.5,215.5,215.5,110,117.5,-120,117.5,230,240,245,245,578,SBD,ABS
3,Rory Dempsey Browne,M,2001-05-19,Ireland,Raw,M-U21,102.9,105,160,170,180,180,107.5,115,-117.5,115,185,200,212.5,212.5,507.5,SBD,ABS
4,Conor Dowling,M,2000-03-03,Ireland,Raw,M-U21,96.1,105,155,162.5,172.5,172.5,100,107.5,-115,107.5,-185,185,200,200,480,SBD,KTS
1,Isaiah Isijola,M,2000-05-09,Ireland,Raw,M-U21,117.4,120,-205,215,240,240,135,142.5,150,150,267.5,285,300,300,690,SBD,ODS
2,Conor Kiernan,M,2000-02-19,Ireland,Raw,M-U21,115.8,120,205,215,-222.5,215,140,150,-155,150,260,270,-275,270,635,SBD,ABS
1,Kym Murray,F,1998-10-04,Ireland,Raw,F-JR,46.2,47,95,100,-102,100,57.5,60.5,61.5,61.5,110,117.5,120,120,281.5,SBD,CGL
1,Roisin Scallan,F,1996-07-28,Ireland,Raw,F-JR,48.6,52,80,-85,-85,80,40,45,47.5,47.5,110,-115,-115,110,237.5,SBD,WHI
1,Zuzana Ha Dacova,F,1996-08-12,Ireland,Raw,F-JR,56,57,112.5,120,,120,57.5,60,62.5,62.5,147.5,155,160,160,342.5,SBD,CGL
1,Jen Harrington,F,1998-07-10,Ireland,Raw,F-JR,61.8,63,122.5,128,133.5,133.5,60,65,67.5,67.5,140,147.5,155,155,356,SBD,ABS
2,Emma Keyes,F,1996-07-04,Ireland,Raw,F-JR,62,63,115,120,-122.5,120,52.5,55,-57.5,55,135,147.5,152.5,152.5,327.5,SBD,STU
3,Kellie McGrath,F,1996-06-05,Ireland,Raw,F-JR,62.2,63,95,100,-105,100,47.5,52.5,55,55,107.5,115,117.5,117.5,272.5,SBD,DSC
4,Claire Lim,F,1996-08-12,Ireland,Raw,F-JR,59.8,63,80,87.5,92.5,92.5,50,-55,55,55,80,90,100,100,247.5,SBD,TCD
1,Caoimhe Ryan Ireland,F,1998-08-25,Ireland,Raw,F-JR,69.6,72,110,117.5,122.5,122.5,60,62.5,65,65,120,130,-137.5,130,317.5,SBD,ABS
2,Jessica Holt,F,1996-02-09,Ireland,Raw,F-JR,70,72,107.5,110,112.5,112.5,73,75,-77,75,115,120,125,125,312.5,SBD,STU
1,Fionnuala Lyons,F,1997-08-03,Ireland,Raw,F-JR,84,84,120,127.5,132.5,132.5,60,65,67.5,67.5,125,132.5,140,140,340,SBD,ODS
1,Kyia Magorrian,F,1996-10-09,Ireland,Raw,F-JR,92,84+,112.5,117.5,120,120,62.5,67.5,-70,67.5,122.5,135,142.5,142.5,330,SBD,SMI
1,Sarah Flynn,F,1973-10-21,Ireland,Raw,F-M1,51.2,52,107.5,112.5,-114.5,112.5,52.5,-55,55,55,130,135,-138,135,302.5,SBD,ABS
1,Julie Kearney,F,1978-11-14,Ireland,Raw,F-M1,55.7,57,107.5,115,120,120,65,67.5,-70,67.5,140,147.5,150,150,337.5,SBD,
2,Karen McKernan,F,1977-08-07,Ireland,Raw,F-M1,56.6,57,107.5,-112.5,112.5,112.5,62.5,67.5,70,70,117.5,125,-127.5,125,307.5,SBD,ABS
1,Gemma Kavanagh,F,1972-11-15,Ireland,Raw,F-M1,62.3,63,110,-115,117.5,117.5,72.5,77.5,-80,77.5,125,132.5,-137.5,132.5,327.5,SBD,KJP
2,Jenny Clarke,F,1975-10-29,Ireland,Raw,F-M1,61.4,63,102.5,107.5,112.5,112.5,60,63,65.5,65.5,127.5,135,140,140,318,SBD,ABS
1,Niamh Savage,F,1978-07-25,Ireland,Raw,F-M1,69.2,72,130,140,145,145,65,-70,-70,65,165,172.5,182.5,182.5,392.5,SBD,
2,Aileen Muldoon,F,1978-02-16,Ireland,Raw,F-M1,69,72,125,135,140,140,72.5,77.5,-80,77.5,150,-160,-160,150,367.5,SBD,ABS
3,Siobhan O'Connell,F,1973-02-15,Ireland,Raw,F-M1,67.3,72,95,102.5,107.5,107.5,47.5,50,-52.5,50,145,155,160,160,317.5,SBD,KJP
1,Lorraine McKenna,F,1973-01-17,Ireland,Raw,F-M1,83.4,84,150,157.5,162.5,162.5,60,62.5,-65,62.5,165,175,180,180,405,SBD,SCN
2,Lorna O'Brien,F,1978-05-23,Ireland,Raw,F-M1,79.3,84,120,127.5,132.5,132.5,70,75,-77.5,75,140,147.5,155,155,362.5,SBD,
3,Tamzen Malone,F,1972-09-14,Ireland,Raw,F-M1,82.8,84,87.5,95,100,100,60,62.5,65,65,115,125,135,135,300,SBD,
4,Alexandra Slye,F,1970-06-02,Ireland,Raw,F-M1,82.1,84,87.5,95,-100,95,52.5,57.5,-60,57.5,125,132.5,135,135,287.5,SBD,KJP
5,Clare Duffy,F,1975-09-30,Ireland,Raw,F-M1,80.7,84,80,85,90,90,50,52.5,-55,52.5,115,122.5,-125,122.5,265,SBD,ABS
1,Emma Kiely,F,1974-11-01,Ireland,Raw,F-M1,90.8,84+,120,127.5,132.5,132.5,67.5,72.5,75,75,167.5,178,186,186,393.5,SBD,ABS
2,Debbie Steele,F,1974-07-23,Ireland,Raw,F-M1,94,84+,-112.5,112.5,122.5,122.5,65,-67.5,67.5,67.5,147.5,152.5,-160,152.5,342.5,SBD,CGL
3,Susan McDonald,F,1971-12-15,Ireland,Raw,F-M1,94.6,84+,110,115,120,120,70,75,80,80,117.5,127.5,137.5,137.5,337.5,SBD,ABS
1,Karen Barry,F,1966-07-29,Ireland,Raw,F-M2,62.7,63,125,132.5,136,136,76,79,-81,79,135,142.5,150,150,365,SBD,ABS
2,Marie Hickey,F,1969-03-11,Ireland,Raw,F-M2,61.6,63,-110,-115,115,115,55,57.5,60,60,125,130,135,135,310,SBD,STU
1,Tara Conlon,F,1959-04-01,Ireland,Raw,F-M3,56.6,57,57.5,62.5,65,65,42.5,45,-48,45,97.5,107.5,113,113,223,SBD,ABS
1,Caroline Cunniffe,F,1957-12-27,Ireland,Raw,F-M3,60.4,63,85,90,92.5,92.5,45,48,49,49,107.5,113,118,118,259.5,SBD,ABS
1,Jodie Ring,F,2001-01-31,Ireland,Raw,F-U21,46.4,47,92.5,97.5,101,101,42.5,45,47.5,47.5,105,110,120,120,268.5,SBD,KTS
1,Laoise Quinn,F,2003-07-17,Ireland,Raw,F-U21,54.4,57,117.5,125.5,130.5,130.5,47.5,50.5,53,53,112.5,117.5,-120,117.5,301,SBD,CGL
2,Megan Rea,F,2000-07-06,Ireland,Raw,F-U21,57,57,95,100,105,105,32.5,37.5,-40,37.5,100,107.5,115,115,257.5,SBD,ABS
1,Lota Leinberga,F,1999-01-25,Ireland,Raw,F-U21,61.4,63,117.5,122.5,125,125,70,75,-78,75,130,135,140,140,340,SBD,DPC
2,Catriona Connolly,F,2000-03-10,Ireland,Raw,F-U21,62.6,63,92.5,100,102.5,102.5,60,65,-67.5,65,140,147.5,150,150,317.5,SBD,CGL
1,Corrina McConnell,F,2001-06-14,Ireland,Raw,F-U21,75.6,84,125,131.5,136,136,67.5,72.5,76,76,135,145,162.5,162.5,374.5,SBD,SMI
1,Megan Dunlea-O'Brien,F,2002-07-13,Ireland,Raw,F-U21,125.5,84+,107.5,112.5,120,120,52.5,57.5,60,60,135,142.5,147.5,147.5,327.5,SBD,KJP
2,Emily Azzali,F,2004-08-17,Ireland,Raw,F-U21,104.4,84+,120,125,-127.5,125,47.5,52.5,-55,52.5,120,127.5,135,135,312.5,SBD,KAO
