Name,WeightClassKg,Division,Sex,Best3SquatKg,Best3BenchKg,Best3DeadliftKg,TotalKg,Event,Equipment,Place
Ginger Lord,44,Open,F,110,52.5,142.5,305,SBD,Single-ply,1
K. Lindt,67.5,Open,F,137.5,72.5,162.5,372.5,SBD,Single-ply,1
P. Bidwell,52,Open,F,85,40,140,265,SBD,Single-ply,2
K. Walter,60,Open,F,,,,305,SBD,Single-ply,1
Cat Chase,75,Open,F,120,62.5,170,352.5,SBD,Single-ply,1
Jo-Ann Negri,52,Open,F,100,57.5,122.5,280,SBD,Single-ply,1
D. McMullen,75,Open,F,127.5,50,147.5,325,SBD,Single-ply,2
Nicki Bruno,52,Open,F,67.5,47.5,100,215,SBD,Single-ply,3
L. Chin,60,Open,F,47.5,55,110,212.5,SBD,Single-ply,2
K. Leland,52,Open,M,75,60,105,240,SBD,Single-ply,1
Dino Raposo,56,Open,M,200,105,190,495,SBD,Single-ply,1
N. Douville,56,Open,M,155,97.5,167.5,420,SBD,Single-ply,2
R. Buczek,56,Open,M,152.5,97.5,165,415,SBD,Single-ply,3
M. Hudon,56,Open,M,137.5,82.5,182.5,402.5,SBD,Single-ply,4
A. Boilard,56,Open,M,95,65,132.5,292.5,SBD,Single-ply,5
Ray Houle,60,Open,M,177.5,127.5,205,510,SBD,Single-ply,1
R. Portillo,60,Open,M,165,107.5,187.5,460,SBD,Single-ply,2
J. DeMulder,60,Open,M,102.5,67.5,155,325,SBD,Single-ply,4
C. Gionet,60,Open,M,127.5,67.5,165,360,SBD,Single-ply,3
J. Carrier,60,Open,M,102.5,67.5,155,325,SBD,Single-ply,5
J. Rizzo,67.5,Open,M,205,152.5,227.5,585,SBD,Single-ply,1
P. Cyr,67.5,Open,M,197.5,150,217.5,565,SBD,Single-ply,2
A. Wood,67.5,Open,M,207.5,117.5,227.5,552.5,SBD,Single-ply,3
H. Powell,67.5,Open,M,202.5,125,222.5,550,SBD,Single-ply,4
Fred Pfister,67.5,Open,M,157.5,115,262.5,535,SBD,Single-ply,5
K. Iskierski,67.5,Open,M,190,115,222.5,527.5,SBD,Single-ply,6
J. Lamoureux,67.5,Open,M,195,105,222.5,522.5,SBD,Single-ply,7
John LaFlamme,67.5,Open,M,190,100,227.5,517.5,SBD,Single-ply,8
Jim Micik,67.5,Open,M,182.5,125,210,517.5,SBD,Single-ply,9
J. Marino,67.5,Open,M,177.5,107.5,197.5,482.5,SBD,Single-ply,10
E. Mattson,67.5,Open,M,145,102.5,202.5,450,SBD,Single-ply,11
Mike Roy,75,Open,M,272.5,160,240,672.5,SBD,Single-ply,1
B. Calvin,75,Open,M,250,160,222.5,632.5,SBD,Single-ply,2
B. Todt,75,Open,M,225,150,245,620,SBD,Single-ply,3
E. Johnson,75,Open,M,195,132.5,227.5,555,SBD,Single-ply,4
C. Williamson,75,Open,M,190,117.5,217.5,525,SBD,Single-ply,5
R. Piotrowski,75,Open,M,170,110,232.5,512.5,SBD,Single-ply,6
D. Brunell,75,Open,M,182.5,120,205,507.5,SBD,Single-ply,7
D. Frendel,75,Open,M,167.5,112.5,215,495,SBD,Single-ply,8
G. Leal,75,Open,M,165,107.5,217.5,490,SBD,Single-ply,9
Chris Polakowski,75,Open,M,132.5,105,217.5,455,SBD,Single-ply,10
P. Bryant,75,Open,M,25,175,87.5,,SBD,Single-ply,DQ
S. Brown,75,Open,M,,,,,SBD,Single-ply,DQ
Nick Carola,82.5,Open,M,300,167.5,307.5,775,SBD,Single-ply,1
P. Labarge,82.5,Open,M,205,162.5,240,607.5,SBD,Single-ply,2
J. Wilkins,82.5,Open,M,205,127.5,230,562.5,SBD,Single-ply,3
T. Gaudette,82.5,Open,M,170,115,227.5,512.5,SBD,Single-ply,4
James Gentile,82.5,Open,M,,,,,SBD,Single-ply,DQ
S. Gerke,82.5,Open,M,,,,,SBD,Single-ply,DQ
George Parigian,90,Open,M,317.5,160,310,787.5,SBD,Single-ply,1
Joe Rizza,90,Open,M,345,160,282.5,787.5,SBD,Single-ply,2
B. Davignon,90,Open,M,260,167.5,262.5,690,SBD,Single-ply,3
A. Silver,90,Open,M,220,140,237.5,597.5,SBD,Single-ply,4
K. Demers,90,Open,M,207.5,145,220,572.5,SBD,Single-ply,5
C. Barclay,90,Open,M,225,127.5,,,SBD,Single-ply,DQ
Barry Chepren,90,Open,M,,,,,SBD,Single-ply,DQ
R. Austin,90,Open,M,,,,,SBD,Single-ply,DQ
P. Liotine,100,Open,M,300,195,300,795,SBD,Single-ply,1
Dan Jackson #1,100,Open,M,282.5,172.5,287.5,742.5,SBD,Single-ply,2
S. Monas,100,Open,M,277.5,177.5,275,730,SBD,Single-ply,3
F. Muccio,100,Open,M,275,175,255,705,SBD,Single-ply,4
T. Lamy,100,Open,M,245,177.5,245,667.5,SBD,Single-ply,5
J. Dion,100,Open,M,192.5,125,242.5,560,SBD,Single-ply,6
R. Simmonds,100,Open,M,,,,,SBD,Single-ply,DQ
Frank Hackett,110,Open,M,350,187.5,285,822.5,SBD,Single-ply,1
Eric Arnold,110,Open,M,290,200,295,785,SBD,Single-ply,2
Alan Snitkin,110,Open,M,257.5,192.5,292.5,742.5,SBD,Single-ply,3
D. Miller,110,Open,M,257.5,175,262.5,695,SBD,Single-ply,4
J. Parisella,110,Open,M,250,187.5,240,677.5,SBD,Single-ply,5
Matt Israelson,110,Open,M,242.5,142.5,260,645,SBD,Single-ply,6
Carlton Snitkin,110,Open,M,382.5,,,,SBD,Single-ply,DQ
B. Frates,125,Open,M,310,162.5,287.5,760,SBD,Single-ply,1
Wayne Andrews,125,Open,M,272.5,137.5,282.5,692.5,SBD,Single-ply,2
T. Orlando,125,Open,M,255,155,,,SBD,Single-ply,DQ
S. Harris,125+,Open,M,285,177.5,267.5,730,SBD,Single-ply,1
L. LaPoint,125+,Open,M,232.5,167.5,250,650,SBD,Single-ply,2
J. Lucas,125+,Open,M,227.5,165,212.5,605,SBD,Single-ply,3
B. Hurd,125+,Open,M,,,,,SBD,Single-ply,DQ
