Name,Sex,Country,BodyweightKg,WeightClassKg,Division,Squat1Kg,Squat2Kg,Squat3Kg,Squat4Kg,Best3SquatKg,Bench1Kg,Bench2Kg,Bench3Kg,Bench4Kg,Best3BenchKg,Deadlift1Kg,Deadlift2Kg,Deadlift3Kg,Deadlift4Kg,Best3DeadliftKg,TotalKg,Place,Event,Equipment
Mariša Golob,F,Slovenia,52.9,56,Juniors,,,,,,70,80,-82.5,,80,,,,,,80,1,B,Multi-ply
Tereza Nižňanská,F,Slovakia,55.1,56,Juniors,,,,,,-75,75,-83,-83,75,,,,,,75,2,B,Multi-ply
Dagmar Liptáková,F,Slovakia,61.6,67.5,Open,,,,,,120,127.5,135,140.5,135,,,,,,135,1,B,Multi-ply
Lolita Zankl,F,Germany,65,67.5,Open,,,,,,92.5,97.5,100,,100,,,,,,100,2,B,Multi-ply
Katja Broxtermann,F,Germany,71.1,75,Open,,,,,,85,90,95,,95,,,,,,95,1,B,Multi-ply
Zdenka Hudíková,F,Slovakia,75.9,82.5,Open,,,,,,80,90,100,,100,,,,,,100,1,B,Multi-ply
Erika Lessmann,F,Germany,58.6,60,Submasters,,,,,,50,60,62.5,,62.5,,,,,,62.5,1,B,Multi-ply
Kerstin Sacks,F,Germany,65.3,67.5,Submasters,,,,,,50,55,57.5,,57.5,,,,,,57.5,1,B,Multi-ply
Britta Kindler,F,Germany,88.6,90,Submasters,,,,,,-85,85,-95,,85,,,,,,85,1,B,Multi-ply
Kerstin Meichsner,F,Germany,100.3,90+,M 40-44,,,,,,50,65,-70,,65,,,,,,65,1,B,Multi-ply
Viola Kongehl,F,Germany,71.4,75,M 45-49,,,,,,85,95,-100,,95,,,,,,95,1,B,Multi-ply
Anne-Kathrin Miegel,F,Germany,81.7,82.5,M 45-49,,,,,,52.5,55,-57.5,,55,,,,,,55,1,B,Multi-ply
Manuela Wetzel,F,Germany,60,60,M 50-54,,,,,,45,50,-52.5,,50,,,,,,50,1,B,Multi-ply
Lolita Zankl,F,Germany,65,67.5,M 50-54,,,,,,95,100,105,-107.5,105,,,,,,105,1,B,Multi-ply
Libuše Leiblová,F,Czechia,82.5,82.5,M 50-54,,,,,,90,110,130,,130,,,,,,130,1,B,Multi-ply
Heide Geber,F,Germany,82.6,90,M 50-54,,,,,,60,65,-70,,65,,,,,,65,1,B,Multi-ply
Inge Kaule,F,Germany,50.3,52,M 60-64,,,,,,50,52.5,55,57.5,55,,,,,,55,1,B,Multi-ply
Ursula Eulenstein,F,Germany,72.8,75,M 60-64,,,,,,67.5,70,72.5,75,72.5,,,,,,72.5,1,B,Multi-ply
Ingeburg Haage,F,Germany,98.8,90+,M 60-64,,,,,,90,95.5,-100,,95.5,,,,,,95.5,1,B,Multi-ply
Ingrid Cedel,F,Germany,57.2,60,M 65-69,,,,,,40,45,-47.5,,45,,,,,,45,1,B,Multi-ply
Hella Schuster,F,Germany,69.3,75,M 75-79,,,,,,-50,-50,50,,50,,,,,,50,1,B,Multi-ply
Marek Herák,M,Slovakia,55,56,T 16-17,,,,,,135,-142.5,-142.5,,135,,,,,,135,1,B,Multi-ply
Taher Shoaib,M,Germany,58.7,60,T 16-17,,,,,,85,-90,,,85,,,,,,85,1,B,Multi-ply
Marcel Klindt,M,Germany,64.4,67.5,T 16-17,,,,,,95,-105,-105,,95,,,,,,95,1,B,Multi-ply
Miroslav Adamove,M,Slovakia,73.5,75,T 16-17,,,,,,150,165,-172.5,,165,,,,,,165,1,B,Multi-ply
Kamil Lipiňski,M,Poland,78.8,82.5,T 16-17,,,,,,115,-150,-150,,115,,,,,,115,1,B,Multi-ply
Gabriel Kováč,M,Slovakia,77.6,82.5,T 18-19,,,,,,220,240,250,-260,250,,,,,,250,1,B,Multi-ply
Max Schröder,M,Germany,87.7,90,T 18-19,,,,,,155,165,-172.5,,165,,,,,,165,1,B,Multi-ply
Jacek Brodzik,M,Poland,67.1,67.5,Juniors,,,,,,150,-171,-171,,150,,,,,,150,1,B,Multi-ply
Bendix Piepenhagen,M,Germany,73.3,75,Juniors,,,,,,-140,140,150,,150,,,,,,150,1,B,Multi-ply
Gorden Karkuschke,M,Germany,72,75,Juniors,,,,,,90,-95,95,,95,,,,,,95,2,B,Multi-ply
Gerrit Scheel,M,Germany,80.4,82.5,Juniors,,,,,,167.5,172.5,177.5,,177.5,,,,,,177.5,1,B,Multi-ply
Miroslav Čaba,M,Slovakia,88.3,90,Juniors,,,,,,210,230,-240,,230,,,,,,230,1,B,Multi-ply
Michal Líška,M,Slovakia,105.3,110,Juniors,,,,,,220,250,260,,260,,,,,,260,1,B,Multi-ply
Christopher Eibl,M,Austria,108.4,110,Juniors,,,,,,205,215,,,215,,,,,,215,2,B,Multi-ply
Dominik Popernik,M,Slovakia,131.3,140,Juniors,,,,,,270,-285,-285,,270,,,,,,270,1,B,Multi-ply
Nico Gollnick,M,Germany,128.7,140,Juniors,,,,,,220,-260,-260,,220,,,,,,220,2,B,Multi-ply
Zbigniew Guljaski,M,Poland,71.7,75,M 40-44,,,,,,145,150,-155,,150,,,,,,150,1,B,Multi-ply
Sven Gietz,M,Germany,73.4,75,M 40-44,,,,,,100,105,110,,110,,,,,,110,2,B,Multi-ply
Mariusz Koczot,M,Poland,87.3,90,M 40-44,,,,,,110,-130,130,,130,,,,,,130,1,B,Multi-ply
Arkadiusz Herold,M,Poland,98.3,100,M 40-44,,,,,,250,-260,-260,,250,,,,,,250,1,B,Multi-ply
Marek Machnik,M,Poland,98.1,100,M 40-44,,,,,,120,125,130,,130,,,,,,130,2,B,Multi-ply
Adam Kozłowski,M,Poland,105.8,110,M 40-44,,,,,,230,245,260,-273,260,,,,,,260,1,B,Multi-ply
Sebastian Balner,M,Poland,100.2,110,M 40-44,,,,,,180,200,220,,220,,,,,,220,2,B,Multi-ply
Reiko Kruse,M,Germany,121.5,125,M 40-44,,,,,,250,260,-272.5,,260,,,,,,260,1,B,Multi-ply
Karel Koldovský,M,Czechia,128,140,M 40-44,,,,,,-250,250,-260,,250,,,,,,250,1,B,Multi-ply
Oliver Dorsch,M,Germany,131.8,140,M 40-44,,,,,,-230,230,-240,,230,,,,,,230,2,B,Multi-ply
Reno Karkuschke,M,Germany,60,60,M 45-49,,,,,,100,110,,,110,,,,,,110,1,B,Multi-ply
Werner Rampler,M,Austria,65.2,67.5,M 45-49,,,,,,132.5,137.5,141.5,,141.5,,,,,,141.5,1,B,Multi-ply
Frank Hennig,M,Germany,79.4,82.5,M 45-49,,,,,,-140,140,150,,150,,,,,,150,1,B,Multi-ply
Michael Gust,M,Germany,88.4,90,M 45-49,,,,,,90,100,-105,,100,,,,,,100,1,B,Multi-ply
Claudio Biderbost,M,Switzerland,97.5,100,M 45-49,,,,,,200,-205,205,,205,,,,,,205,1,B,Multi-ply
René Kühnl,M,Germany,99.1,100,M 45-49,,,,,,190,200,205,,205,,,,,,205,2,B,Multi-ply
Steffen Reisbach,M,Germany,94,100,M 45-49,,,,,,185,192.5,200,,200,,,,,,200,3,B,Multi-ply
Karol Repiský,M,Slovakia,110,110,M 45-49,,,,,,215,230,-240,,230,,,,,,230,1,B,Multi-ply
Didier Michelon,M,France,117.1,125,M 45-49,,,,,,320,-340,-340,,320,,,,,,320,1,B,Multi-ply
Tim Moon,M,USA,126.3,140,M 45-49,,,,,,320,331,-347.5,,331,,,,,,331,1,B,Multi-ply
Tomas Veselý,M,Czechia,143.3,140+,M 45-49,,,,,,250,-260,-262.5,,250,,,,,,250,1,B,Multi-ply
Hans Schuh,M,Germany,140.1,140+,M 45-49,,,,,,-240,-250,-260,,,,,,,,,DQ,B,Multi-ply
Sylvio Dölz,M,Germany,73.8,75,M 50-54,,,,,,110,120,,,120,,,,,,120,1,B,Multi-ply
Heinz Schmiedeck,M,Germany,82.3,82.5,M 50-54,,,,,,170,175,177.5,181,177.5,,,,,,177.5,1,B,Multi-ply
Uwe Herfort,M,Germany,76.6,82.5,M 50-54,,,,,,160,170,-175,,170,,,,,,170,2,B,Multi-ply
Roland Renneberg,M,Germany,85.8,90,M 50-54,,,,,,150,160,170,,170,,,,,,170,1,B,Multi-ply
Horst Fischer,M,Germany,88.4,90,M 50-54,,,,,,145,150,-152.5,,150,,,,,,150,2,B,Multi-ply
Friedhelm Mandel,M,Germany,99.6,100,M 50-54,,,,,,150,157.5,165,,165,,,,,,165,1,B,Multi-ply
Lothar Pritzl,M,Germany,92.8,100,M 50-54,,,,,,147.5,155,162.5,,162.5,,,,,,162.5,2,B,Multi-ply
Peter Kadák,M,Slovakia,99.4,100,M 50-54,,,,,,125,135,-142.5,,135,,,,,,135,3,B,Multi-ply
Peter Klimo,M,Slovakia,106.5,110,M 50-54,,,,,,-207.5,207.5,212.5,,212.5,,,,,,212.5,1,B,Multi-ply
Romeo Lamprecht,M,Austria,109.1,110,M 50-54,,,,,,-190,190,200,,200,,,,,,200,2,B,Multi-ply
Peter Ihlenfeld,M,Germany,116.8,125,M 50-54,,,,,,200,220,230,,230,,,,,,230,1,B,Multi-ply
Michael Schäfer,M,Germany,117.3,125,M 50-54,,,,,,185,-192.5,-192.5,,185,,,,,,185,2,B,Multi-ply
Dariusz Bojarczuk,M,Poland,133.5,140,M 50-54,,,,,,195,205,-215,,205,,,,,,205,1,B,Multi-ply
Lutz Dürre,M,Germany,129.3,140,M 50-54,,,,,,180,190,,,190,,,,,,190,2,B,Multi-ply
Kurt Rooch,M,Germany,66.9,67.5,M 55-59,,,,,,130,135,140.5,,140.5,,,,,,140.5,1,B,Multi-ply
Jürgen Dziergwa,M,Germany,67.2,67.5,M 55-59,,,,,,-125,125,-130,,125,,,,,,125,2,B,Multi-ply
Hans-Jürgen Kaule,M,Germany,74.5,75,M 55-59,,,,,,155,160,-165,,160,,,,,,160,1,B,Multi-ply
Jozef Gabrhel,M,Slovakia,73.5,75,M 55-59,,,,,,110,120,-130,,120,,,,,,120,2,B,Multi-ply
Detlef Heinrich,M,Germany,79.7,82.5,M 55-59,,,,,,-175,175,182.5,,182.5,,,,,,182.5,1,B,Multi-ply
Jürgen Teubner,M,Germany,81.4,82.5,M 55-59,,,,,,175,-182.5,-185,,175,,,,,,175,2,B,Multi-ply
Franciszek Szabluk,M,Poland,90,90,M 55-59,,,,,,200,-210,-210,-221,200,,,,,,200,1,B,Multi-ply
Frank Kutzsch,M,Germany,89,90,M 55-59,,,,,,167.5,172.5,177.5,,177.5,,,,,,177.5,2,B,Multi-ply
Krysztof Kolodziey,M,Poland,87.6,90,M 55-59,,,,,,160,-170,170,,170,,,,,,170,3,B,Multi-ply
Wiesław Wrŏbel,M,Poland,98.3,100,M 55-59,,,,,,175,182.5,187.5,,187.5,,,,,,187.5,1,B,Multi-ply
Stanisław Kozeko,M,Poland,99.1,100,M 55-59,,,,,,-170,170,187.5,,187.5,,,,,,187.5,2,B,Multi-ply
Karel Leibl,M,Czechia,108.1,110,M 55-59,,,,,,110,140,150,,150,,,,,,150,1,B,Multi-ply
Krystian Slosarek,M,Germany,118.6,125,M 55-59,,,,,,200,207.5,-220,,207.5,,,,,,207.5,1,B,Multi-ply
Klaus Grosser,M,Germany,115.8,125,M 55-59,,,,,,190,200,-210,,200,,,,,,200,2,B,Multi-ply
Péter Mihály,M,Slovakia,156.5,140+,M 55-59,,,,,,230,,,,230,,,,,,230,1,B,Multi-ply
Gerd Müller,M,Germany,80,82.5,M 60-64,,,,,,120,125,132.5,,132.5,,,,,,132.5,1,B,Multi-ply
Bernhard Hojka,M,Poland,78.2,82.5,M 60-64,,,,,,100,-120,-130,,100,,,,,,100,2,B,Multi-ply
Reinhold Schaumann-Kelch,M,Germany,85.8,90,M 60-64,,,,,,125,130,135,,135,,,,,,135,1,B,Multi-ply
Thomas Riehl,M,Germany,98.2,100,M 60-64,,,,,,185,192.5,-200,,192.5,,,,,,192.5,1,B,Multi-ply
Norbert Lessmann,M,Germany,119.4,125,M 60-64,,,,,,130,150,-160,,150,,,,,,150,1,B,Multi-ply
Gerd Becker,M,Germany,79.5,82.5,M 65-69,,,,,,110,-115,-115,,110,,,,,,110,1,B,Multi-ply
Harald Peschl,M,Germany,83.9,90,M 65-69,,,,,,130,137.5,140,,140,,,,,,140,1,B,Multi-ply
Roland Götz,M,Germany,84.4,90,M 65-69,,,,,,125,135,-140,,135,,,,,,135,2,B,Multi-ply
Joachim Dr. Eulenstein,M,Germany,97.9,100,M 65-69,,,,,,90,100,110,,110,,,,,,110,1,B,Multi-ply
Wolfram Waibel,M,Austria,112.9,125,M 65-69,,,,,,120,125,130,,130,,,,,,130,1,B,Multi-ply
Erwin Trichlin,M,Austria,65.6,67.5,M 70-74,,,,,,110,117.5,120,122.5,120,,,,,,120,1,B,Multi-ply
Gerd Cedel,M,Germany,67.7,75,M 70-74,,,,,,80,82.5,-85,,82.5,,,,,,82.5,1,B,Multi-ply
Alfred Stolz,M,Austria,88.6,90,M 70-74,,,,,,160,165,-170,,165,,,,,,165,1,B,Multi-ply
Wilfried Pleske,M,Germany,88.9,90,M 70-74,,,,,,120,125,-130,,125,,,,,,125,2,B,Multi-ply
Frieder Hachenberger,M,Germany,94.6,100,M 70-74,,,,,,155,160.5,162.5,,162.5,,,,,,162.5,1,B,Multi-ply
Heiner Dr. Schildbach,M,Germany,100.9,110,M 70-74,,,,,,115,122.5,-127.5,,122.5,,,,,,122.5,1,B,Multi-ply
Dieter Schweitzer,M,Germany,66.4,67.5,M 75-79,,,,,,50,57.5,-62.5,,57.5,,,,,,57.5,1,B,Multi-ply
Bernhard Gromadecki,M,Germany,75,75,M 75-79,,,,,,-82.5,-82.5,-82.5,,,,,,,,,DQ,B,Multi-ply
Elmar Mathis,M,Austria,77.6,82.5,M 75-79,,,,,,-101,101,105,110,105,,,,,,105,1,B,Multi-ply
Gerd Meyerhofer,M,Germany,77.9,82.5,M 75-79,,,,,,60,65,,,65,,,,,,65,2,B,Multi-ply
Konrad Merta,M,Germany,85.6,90,M 75-79,,,,,,105,117.5,122.5,,122.5,,,,,,122.5,1,B,Multi-ply
Marcin Herok,M,Poland,72.9,75,Submasters,,,,,,110,115,135,,135,,,,,,135,1,B,Multi-ply
Thomas Fischer,M,Germany,73.7,75,Submasters,,,,,,100,110,125,,125,,,,,,125,2,B,Multi-ply
Erni Gregorčič,M,Slovenia,77,82.5,Submasters,,,,,,155,170,175,,175,,,,,,175,1,B,Multi-ply
Igors Marudins,M,Latvia,80.2,82.5,Submasters,,,,,,-115,115,120,,120,,,,,,120,2,B,Multi-ply
Mihails Rekaikins,M,Latvia,89.5,90,Submasters,,,,,,150,160,-170,,160,,,,,,160,1,B,Multi-ply
Daniel Kaufmann,M,Germany,92.3,100,Submasters,,,,,,225,230,-245,,230,,,,,,230,1,B,Multi-ply
Juliusz Zbierski,M,Poland,94.7,100,Submasters,,,,,,215,222.5,-232.5,,222.5,,,,,,222.5,2,B,Multi-ply
Maciej Jaskiewicz,M,Poland,100.1,110,Submasters,,,,,,210,220,-230,,220,,,,,,220,1,B,Multi-ply
Mirosław Zakrzewski,M,Poland,112.5,125,Submasters,,,,,,260,275,-290,,275,,,,,,275,1,B,Multi-ply
Christian Klose,M,Germany,121.2,125,Submasters,,,,,,225,-235,235,,235,,,,,,235,2,B,Multi-ply
Maik Seidel,M,Germany,113.7,125,Submasters,,,,,,190,-200,200,,200,,,,,,200,3,B,Multi-ply
Sirko Petermann,M,Germany,126.6,140,Submasters,,,,,,202.5,215,225,,225,,,,,,225,1,B,Multi-ply
Jiří Havrda,M,Czechia,141.3,140+,Submasters,,,,,,310,320,342,350,342,,,,,,342,1,B,Multi-ply
Reno Karkuschke,M,Germany,60,60,Open,,,,,,100,110,-115,,110,,,,,,110,1,B,Multi-ply
Taher Shoaib,M,Germany,58.8,60,Open,,,,,,-85,85,-90,,85,,,,,,85,2,B,Multi-ply
Andrii Babynchuk,M,Ukraine,67.5,67.5,Open,,,,,,170,182.5,-192.5,,182.5,,,,,,182.5,1,B,Multi-ply
Werner Rampler,M,Austria,66,67.5,Open,,,,,,135,142.5,145,,145,,,,,,145,2,B,Multi-ply
Ivo Dittrich,M,Czechia,66.6,67.5,Open,,,,,,135,145,-150,,145,,,,,,145,3,B,Multi-ply
Sandro Kreller,M,Germany,67.5,67.5,Open,,,,,,-175,-180,-190,,,,,,,,,DQ,B,Multi-ply
Erik Bačinský,M,Slovakia,72.8,75,Open,,,,,,210,225,236,,236,,,,,,236,1,B,Multi-ply
Steffen Hackbart,M,Germany,74.3,75,Open,,,,,,185,195,-210,,195,,,,,,195,2,B,Multi-ply
Gordon Pflaumer,M,Germany,75,75,Open,,,,,,150,-160,-160,,150,,,,,,150,3,B,Multi-ply
Ŀukasz Kozłowski,M,Poland,82.5,82.5,Open,,,,,,220,230,-240,,230,,,,,,230,1,B,Multi-ply
Thomas Gaida,M,Germany,81.1,82.5,Open,,,,,,165,172.5,-182.5,,172.5,,,,,,172.5,2,B,Multi-ply
Vladyslav Katsebo,M,Ukraine,80.6,82.5,Open,,,,,,170,-180,-182.5,,170,,,,,,170,3,B,Multi-ply
Thomas Winkelmann,M,Germany,77.8,82.5,Open,,,,,,155,162.5,-170,,162.5,,,,,,162.5,4,B,Multi-ply
Robert Bürger,M,Germany,78.9,82.5,Open,,,,,,135,142.5,150,,150,,,,,,150,5,B,Multi-ply
Marcel Stecher,M,Germany,78.2,82.5,Open,,,,,,140,145,-150,,145,,,,,,145,6,B,Multi-ply
Christoph Scheel,M,Germany,89.4,90,Open,,,,,,240,250,252.5,,252.5,,,,,,252.5,1,B,Multi-ply
Dawid Deptuch,M,Poland,89.8,90,Open,,,,,,-230,230,252.5,,252.5,,,,,,252.5,2,B,Multi-ply
Rene Dölle,M,Germany,89.5,90,Open,,,,,,150,162.5,,,162.5,,,,,,162.5,3,B,Multi-ply
Piotr Herold,M,Poland,100,100,Open,,,,,,300,-322.5,-330,-330,300,,,,,,300,1,B,Multi-ply
Krysztof Zakrzewski,M,Poland,98.4,100,Open,,,,,,-260,270,280,,280,,,,,,280,2,B,Multi-ply
Matthias Joecks,M,Germany,100,100,Open,,,,,,240,250,-272.5,,250,,,,,,250,3,B,Multi-ply
Daniel Oertig,M,Switzerland,97,100,Open,,,,,,230,240,245,,245,,,,,,245,4,B,Multi-ply
Andrii Chumak,M,Ukraine,94.5,100,Open,,,,,,202.5,220,-245,,220,,,,,,220,5,B,Multi-ply
Marek Machnik,M,Poland,98,100,Open,,,,,,125,130,-132.5,,130,,,,,,130,6,B,Multi-ply
Petr Bolf,M,Czechia,110,110,Open,,,,,,290,300,307.5,,307.5,,,,,,307.5,1,B,Multi-ply
Alexander Horváth,M,Slovakia,102.6,110,Open,,,,,,230,260,-300,,260,,,,,,260,2,B,Multi-ply
Heiko Fritzsch,M,Germany,101.8,110,Open,,,,,,-237.5,237.5,-240,,237.5,,,,,,237.5,3,B,Multi-ply
Ján Šiska,M,Slovakia,110,110,Open,,,,,,150,,,,150,,,,,,150,4,B,Multi-ply
Didier Michelon,M,France,116.9,125,Open,,,,,,-315,315,330,,330,,,,,,330,1,B,Multi-ply
Karol Repiský,M,Slovakia,110.8,125,Open,,,,,,220,240,-250,,240,,,,,,240,2,B,Multi-ply
Serhiy Varha,M,Ukraine,112.6,125,Open,,,,,,230,240,-250,,240,,,,,,240,3,B,Multi-ply
Tim Moon,M,USA,126.5,140,Open,,,,,,-322.5,322.5,327.5,343,327.5,,,,,,327.5,1,B,Multi-ply
Peter Funtík,M,Slovakia,126.5,140,Open,,,,,,280,300,-325,,300,,,,,,300,2,B,Multi-ply
Oto Pospíšil,M,Czechia,144.8,140+,Open,,,,,,260,280,290,,290,,,,,,290,1,B,Multi-ply
Oleg Kasianenko,M,Ukraine,151.6,140+,Open,,,,,,-245,245,262.5,,262.5,,,,,,262.5,2,B,Multi-ply
Tomas Veselý,M,Czechia,142.2,140+,Open,,,,,,-260,,,,,,,,,,,DQ,B,Multi-ply
Mariša Golob,F,Slovenia,54.2,56,Juniors,110,120,-132.5,,120,70,80,85,,85,110,120,-130,,120,325,1,SBD,Multi-ply
Adriana Kalocaiova,F,Slovakia,64,67.5,Juniors,80,95,110,,110,55,-62.5,-62.5,,55,90,110,-120,,110,275,1,SBD,Multi-ply
Melisande Grillhofer,F,Austria,56,56,Open,85,95,-105,,95,55,-65,65,,65,90,-100,-100,,90,250,1,SBD,Multi-ply
Nicole Ketzler,F,Germany,60,60,Open,-160,160,177.5,,177.5,85,-92.5,92.5,,92.5,125,135,142.5,,142.5,412.5,1,SBD,Multi-ply
Sandra Mokrá,F,Slovakia,66.8,67.5,Open,150,162.5,172.5,,172.5,107.5,115,122,,122,155,170,177.5,,177.5,472,1,SBD,Multi-ply
Hjördis Dietrich,F,Germany,65.9,67.5,Open,130,140,145,,145,-65,67.5,-72.5,,67.5,130,137.5,147.5,,147.5,360,2,SBD,Multi-ply
Ilona Rinas,F,Germany,60.9,67.5,M 60-64,127.5,132.5,137.5,,137.5,87.5,92.5,-95,,92.5,130,137.5,145,-150,145,375,1,SBD,Multi-ply
Lolita Zankl,F,Germany,64.3,67.5,M 50-54,80,90,100,102.5,100,92.5,97.5,102.5,105,102.5,110,122.5,132.5,140,132.5,335,1,SBD,Multi-ply
Elbisa Zehethofer,F,Austria,51.3,52,M 40-44,110,120,130,-132.5,130,55,60,62.5,,62.5,120,135,140.5,-142.5,140.5,333,1,SBD,Multi-ply
Kamila Tillack,F,Germany,66.3,67.5,M 40-44,75,80,-85,,80,67.5,72.5,-75,,72.5,125,135,142.5,,142.5,295,1,SBD,Multi-ply
Jodi Parkhurst,F,USA,87.6,90,M 40-44,140,-150,-150,,140,82.5,90,-93,,90,100,112.5,-125,,112.5,342.5,1,SBD,Multi-ply
Patricia Friedrich,F,Germany,71.8,75,Submasters,180,-200.5,200.5,215,200.5,101,110,-120,,110,150,170.5,185,,185,495.5,1,SBD,Multi-ply
Sebastian Eschennasy,M,Germany,65.8,67.5,T 16-17,160,180,190,,190,95,115,,,115,160,-185,-185,,160,465,1,SBD,Multi-ply
Jona Wessiak,M,Austria,60.4,67.5,T 16-17,-100,110,120,,120,70,75,80,,80,140,160,-170,,160,360,2,SBD,Multi-ply
Tristan Cianni,M,Germany,71.5,75,T 16-17,170,190,-210,,190,110,120,-130,,120,70,-150,160,,160,470,1,SBD,Multi-ply
Robin Hejl,M,Czechia,70.6,75,T 16-17,95,105,110,,110,50,55,-60,,55,-115,115,125,,125,290,2,SBD,Multi-ply
Alexander Smetana,M,Slovakia,79.4,82.5,T 16-17,160,180,-190,,180,-122.5,-122.5,122.5,,122.5,150,172.5,180,,180,482.5,1,SBD,Multi-ply
Marco Schneider,M,Austria,76.6,82.5,T 16-17,-110,110,120,,120,90,105,-115,,105,170,180,-190,,180,405,2,SBD,Multi-ply
Dániel Dömötor,M,Slovakia,99.3,100,T 16-17,205,230,250,,250,165,180,-190,,180,195,220,-230,,220,650,1,SBD,Multi-ply
Max Braune,M,Germany,72.7,75,T 18-19,145,160,170,,170,92.5,102.5,110,,110,140,150,160,,160,440,1,SBD,Multi-ply
Matej Sozanský,M,Slovakia,81.7,82.5,T 18-19,-180,180,-200,,180,130,140,-150,,140,150,170,-180,,170,490,1,SBD,Multi-ply
Max Schröder,M,Germany,86.7,90,T 18-19,260,270,-280,,270,170,180,-190,,180,250,260,270,-280.5,270,720,1,SBD,Multi-ply
Ákos Labát,M,Slovakia,117.3,125,T 18-19,280,-295,300,,300,160,170,-180,,170,250,265,-280,,265,735,1,SBD,Multi-ply
Ron Krieg,M,Germany,126.6,140,Open,150,160,170,,170,140,-150,-150,,140,195,205,215,,215,525,G,SBD,Multi-ply
Michael Hadalin,M,Austria,75,75,Juniors,180,190,200,,200,80,90,-95,,90,180,-200,200,,200,490,1,SBD,Multi-ply
Sebastian Pawlik,M,Poland,81.9,82.5,Juniors,200,210,220,,220,170,175,-180,,175,-210,210,220,,220,615,1,SBD,Multi-ply
Martin Hinteregger,M,Austria,82.1,82.5,Juniors,200,220,240,,240,125,130,-140,,130,200,220,-230,,220,590,2,SBD,Multi-ply
Oleksii Zipa,M,Ukraine,89,90,Juniors,270,285,-295,,285,160,170,-175,,170,260,275,295,,295,750,1,SBD,Multi-ply
Dimitri Wild,M,Germany,86.1,90,Juniors,240,255,265,,265,205,-215,215,,215,-230,240,267.5,,267.5,747.5,2,SBD,Multi-ply
Markus Lagger,M,Austria,84.9,90,Juniors,220,240,270,,270,120,130,-140,,130,210,230,240,,240,640,3,SBD,Multi-ply
Tomáš Bugáň,M,Slovakia,94,100,Juniors,230,250,260,,260,215,225,-235,,225,225,240,-252.5,,240,725,1,SBD,Multi-ply
Patrick Leheis,M,Germany,91.6,100,Juniors,180,200,-212.5,,200,155,160,-165,,160,225,-235,-240,,225,585,2,SBD,Multi-ply
Tobias Beuche,M,Germany,97.5,100,Juniors,202.5,215,-225,,215,115,125,-130,,125,190,202.5,-207.5,,202.5,542.5,3,SBD,Multi-ply
Erik Jaškanič,M,Slovakia,106.6,110,Juniors,310,330.5,,,330.5,-210,210,,,210,-310,310,320,,320,860.5,1,SBD,Multi-ply
Pavel Vacek,M,Czechia,116.1,125,Juniors,280,300,-310,,300,120,170,180,,180,250,-265,265,,265,745,1,SBD,Multi-ply
Janos Mikulas,M,Slovakia,110.2,125,Juniors,230,240,250,,250,130,180,-190,,180,300,-315,-315,,300,730,2,SBD,Multi-ply
Luca Segrer,M,Italy,78.4,82.5,M 40-44,220,230,240,,240,140,147.5,152.5,,152.5,225,235,242.5,,242.5,635,1,SBD,Multi-ply
Rudolf Siska,M,Slovakia,79,82.5,M 40-44,220,-235,-240,,220,170,181,187.5,,187.5,180,200,-205,,200,607.5,2,SBD,Multi-ply
Thomas Krziwda,M,Germany,89,90,M 40-44,200,-220,-220,,200,140,145,152.5,,152.5,210,235,-247.5,,235,587.5,1,SBD,Multi-ply
Torsten Kammer,M,Germany,89.5,90,M 40-44,210,230,-240,,230,140,147.5,152.5,,152.5,190,205,-217.5,,205,587.5,2,SBD,Multi-ply
Helmut Kraus,M,Germany,98.7,100,M 40-44,290,-310,-310,,290,215,225,250,,250,230,-250,,,230,770,1,SBD,Multi-ply
Maik Teichert,M,Germany,118.6,125,M 40-44,60,80,110,,110,150,236,240,-245,240,80,120,160,,160,510,1,SBD,Multi-ply
Daniel Fröhlich,M,Germany,130.8,140,M 40-44,250,-270,,,250,-190,190,-210,,190,150,200,-252.5,,200,640,1,SBD,Multi-ply
Reno Karkuschke,M,Germany,60,60,M 45-49,140,155,-162.5,,155,105,112.5,115,,115,125,135,137.5,,137.5,407.5,1,SBD,Multi-ply
Ingo Woschny,M,Germany,81.8,82.5,M 45-49,200,-215,215,,215,165,170,,,170,200,210,215,,215,600,1,SBD,Multi-ply
Mark Calvert,M,USA,79.7,82.5,M 45-49,150,-162.5,-162.5,,150,102.5,-112.5,-112.5,,102.5,160,172.5,-175,,172.5,425,2,SBD,Multi-ply
Steffen Reisbach,M,Germany,93.8,100,M 45-49,240,-250,-250,,240,175,190,-200,,190,215,225,,,225,655,1,SBD,Multi-ply
Viktor Kudi,M,Czechia,112.7,125,M 45-49,320,330,-346,-346,330,230,-245,-245,,230,260,275,-280,,275,835,1,SBD,Multi-ply
Marco Hartwich,M,Germany,141,140+,M 45-49,200,210,-220,,210,160,170,-180,,170,220,240,250,,250,630,1,SBD,Multi-ply
Detlef Riedel,M,Germany,79.1,82.5,M 50-54,220,235,250,,250,152.5,160,165,,165,200,210,-220,,210,625,1,SBD,Multi-ply
Lothar Pritzl,M,Germany,90,90,M 50-54,210,-220,240,,240,150,160,-170,,160,180,190,200,,200,600,1,SBD,Multi-ply
Sergio Bianchi,M,Italy,88.8,90,M 50-54,220,240,250,,250,100,110,115,,115,190,205,,,205,570,2,SBD,Multi-ply
Peter Rathke,M,Germany,93.6,100,M 50-54,-272.5,-272.5,-272.5,,,,,,,,,,,,,,DQ,SBD,Multi-ply
Frank Hurraß,M,Germany,125.1,140,M 50-54,200,225,,,225,180,-201.5,201.5,,201.5,200,230,250.5,,250.5,677,1,SBD,Multi-ply
Kurt Rooch,M,Germany,66.2,67.5,M 55-59,190,-196,,,190,130,141,,,141,170,195.5,-200,200,195.5,526.5,1,SBD,Multi-ply
Hans-Jürgen Kaule,M,Germany,74,75,M 55-59,190,215,225,231,225,155,160,161,,161,200,220,-225,-241,220,606,1,SBD,Multi-ply
Calin Eschenasy,M,Germany,74.2,75,M 55-59,-220,-225,-225,,,,,,,,,,,,,,DQ,SBD,Multi-ply
Detlef Heinrich,M,Germany,81.6,82.5,M 55-59,185,-200,,,185,175,-185,185,,185,170,-185,-200,,170,540,1,SBD,Multi-ply
Frank Kutzsch,M,Germany,89.9,90,M 55-59,210,230,240,,240,160,165,,,165,210,230,245.5,,245.5,650.5,1,SBD,Multi-ply
Joachim Flett,M,Germany,98.6,100,M 55-59,250,260,-265,,260,100,110,120,,120,230,-250,-250,,230,610,1,SBD,Multi-ply
Krystian Slosarek,M,Germany,119.5,125,M 55-59,-260,260,-275,,260,190,212.5,-225,,212.5,240,-255,-255,,240,712.5,1,SBD,Multi-ply
Herbert Kummer,M,Germany,133.9,140,M 55-59,-210,-210,210,,210,130,140,148,,148,210,225,-235,-236,225,583,1,SBD,Multi-ply
Burkhard Steffen,M,Germany,73.7,75,M 60-64,160,170,180,,180,95,100,102.5,,102.5,140,145,150,,150,432.5,1,SBD,Multi-ply
Heinz Stroj,M,Austria,100,100,M 60-64,190,-210,210,,210,120,130,140,,140,170,200,-230,,200,550,1,SBD,Multi-ply
Marcel Ingold,M,Switzerland,67,67.5,M 65-69,120,132.5,135,,135,-85,85,90,,90,150,157.5,165,,165,390,1,SBD,Multi-ply
Wolfgang Hökendorf,M,Germany,74.9,75,M 65-69,-155,155,166,,166,120,125,127.5,,127.5,170,-183.5,-183.5,,170,463.5,1,SBD,Multi-ply
Lothar Bohrisch,M,Germany,93.6,100,M 65-69,155,170,-180,,170,125,135,137.5,,137.5,180,195,-206,,195,502.5,1,SBD,Multi-ply
Heinz-Joachim Probst,M,Germany,102.4,110,M 65-69,110,120,130,,130,87.5,100,107.5,,107.5,-140,140,165,,165,402.5,1,SBD,Multi-ply
Ulrich Mielich,M,Germany,74.7,75,M 70-74,70,80,85,,85,57.5,60,62.5,,62.5,-110,120,125,,125,272.5,1,SBD,Multi-ply
Gerd Meyerhofer,M,Germany,77.9,82.5,M 75-79,55,60,65,,65,55,60,65,,65,95,105,110,,110,240,1,SBD,Multi-ply
Jeffrey Podszuweit,M,Germany,73.5,75,Submasters,272.5,290,-305,,290,202.5,222.5,231,,231,-230,250,265,,265,786,1,SBD,Multi-ply
Erni Gregorčič,M,Slovenia,77.5,82.5,Submasters,200,210,220,,220,155,165,170,,170,200,215,225,,225,615,1,SBD,Multi-ply
Markus Rücker,M,Germany,88.9,90,Submasters,240,255,-265,,255,-160,160,170,,170,240,255,-265,,255,680,1,SBD,Multi-ply
Markus Schreiber,M,Austria,96.3,100,Submasters,-270,270,-300,,270,150,-160,,,150,220,240,-250,,240,660,1,SBD,Multi-ply
Christian Spittaler,M,Austria,92.1,100,Submasters,-260,-300,-300,,,,,,,,,,,,,,DQ,SBD,Multi-ply
Hannes Winkler,M,Austria,108.5,110,Submasters,260,300,320,,320,160,180,190,,190,220,242.5,260,,260,770,1,SBD,Multi-ply
Christian Schlager,M,Austria,100.1,110,Submasters,-230,230,-250,,230,-140,140,-150,,140,220,-232.5,-232.5,,220,590,2,SBD,Multi-ply
Silvio Rücker,M,Germany,119.9,125,Submasters,-260,-290,-300,,-260,-200,-210,-215,,-200,-250,-250,-250,,,,DQ,SBD,Multi-ply
Stephen Parkhurst,M,USA,127.2,140,Submasters,310,-325,325,,325,215,233.5,240,,240,280,300,-317.5,,300,865,1,SBD,Multi-ply
Pascal Müller,M,Germany,71,75,Open,200,220,-230,,220,120,130,140,,140,110,115,120,,120,480,G,SBD,Multi-ply
Ron Kronschwitz,M,Germany,81.8,82.5,Open,240,-260,270,,270,180,-190,190,,190,240,247.5,252.5,,252.5,712.5,1,SBD,Multi-ply
Valerii Marushka,M,Ukraine,77.5,82.5,Open,255,265,-270,,265,182.5,-192.5,-192.5,,182.5,232.5,242.5,250,,250,697.5,2,SBD,Multi-ply
Zdeněk Hrach,M,Czechia,79.6,82.5,Open,240,255,260,,260,160,170,180,,180,210,230,-252.5,,230,670,3,SBD,Multi-ply
Stefan Gneist,M,Germany,81.5,82.5,Open,170,180,185,,185,145,150,-155,,150,165,170,175,,175,510,4,SBD,Multi-ply
Peter Lincmaier,M,Slovakia,89.3,90,Open,280,-305,305,,305,170,190,-200,,190,270,290,305,-323,305,800,1,SBD,Multi-ply
Nino Pevec,M,Slovenia,89,90,Open,250,262.5,270,,270,180,190,200,,200,220,232.5,240,,240,710,2,SBD,Multi-ply
Erik Knöfler,M,Germany,97.7,100,Open,345,370,-380,,370,185,205,215,,215,280,300,-315,320.5,300,885,1,SBD,Multi-ply
Lars Seifert,M,Germany,98.8,100,Open,280,305,317.5,,317.5,175,182.5,-207.5,,182.5,230,245,-250,,245,745,2,SBD,Multi-ply
Oleksandr Glushenko,M,Ukraine,110,110,Open,330,350,370,,370,230,245,250,,250,290,305,310,,310,930,1,SBD,Multi-ply
Heiko Götz,M,Germany,107.8,110,Open,250,-270,270,,270,240,245,250,,250,250,270,280,,280,800,2,SBD,Multi-ply
Ivan Dubrovskyi,M,Ukraine,109.1,110,Open,290,305,-315,,305,200,-210,-210,,200,255,270,280,,280,785,3,SBD,Multi-ply
Sven Lorenz,M,Germany,106.2,110,Open,280,-300,300,,300,180,200,-212.5,,200,260,-280,-280,,260,760,4,SBD,Multi-ply
Ján Šiska,M,Slovakia,109.9,110,Open,220,-250,300,,300,160,-200,-200,,160,220,-250,-250,,220,680,5,SBD,Multi-ply
Martin Košnar,M,Czechia,124.8,125,Open,400,410,420,,420,300,310,320,325,320,280,300,310,,310,1050,1,SBD,Multi-ply
Artem Stepanenko,M,Ukraine,121.2,125,Open,340,360,370,,370,225,235,240,,240,275,290,-300,,290,900,2,SBD,Multi-ply
René Fiedler,M,Germany,133,140,Open,250,260,270,,270,230,237.5,-245,,237.5,250,,,,250,757.5,1,SBD,Multi-ply
